DEG-tables_merge_filter
…
Breakdown of which orthogroups are duplicated

sid_multi.isogroups_RO_RC %>% 
  group_by(orthogroup) %>% 
  filter(n()>1)

## # A tibble: 34 x 9
## # Groups:   orthogroup [13]
##    orthogroup  gene        X baseMean log2FoldChange lfcSE  stat  pvalue    padj
##    <fct>       <fct>   <int>    <dbl>          <dbl> <dbl> <dbl>   <dbl>   <dbl>
##  1 N0.HOG0000 Sidera   583     2.68          1.76  0.628  2.81 4.97e-3 0.0681 
##  2 N0.HOG0000 Sidera   305    29.5           1.28  0.395  3.24 1.18e-3 0.0309 
##  3 N0.HOG0000 Sidera   373    20.9           1.39  0.447  3.10 1.92e-3 0.0408 
##  4 N0.HOG0000 Sidera    75    20.5           1.32  0.328  4.02 5.79e-5 0.00595
##  5 N0.HOG0000 Sidera   147     6.60         -2.46  0.678 -3.62 2.89e-4 0.0156 
##  6 N0.HOG0000 Sidera   325    39.0           0.890 0.279  3.19 1.42e-3 0.0348 
##  7 N0.HOG0000 Sidera   789    68.3           0.753 0.290  2.60 9.44e-3 0.0960 
##  8 N0.HOG0000 Sidera    48     6.65         -1.99  0.472 -4.21 2.55e-5 0.00421
##  9 N0.HOG0000 Sidera   191    15.1           1.54  0.440  3.49 4.80e-4 0.0201 
## 10 N0.HOG0000 Sidera   109    14.9           1.87  0.493  3.80 1.44e-4 0.0106 
## #  with 24 more rows
…
